{
  "locked": false,
  "version": -9996,
  "targets": {
    "DNX,Version=v4.5.1": {
      "Autofac/4.0.0-beta5-90": {
        "frameworkAssemblies": [
          "mscorlib",
          "System",
          "System.Core",
          "Microsoft.CSharp"
        ],
        "compile": {
          "lib/dnx451/Autofac.dll": {}
        },
        "runtime": {
          "lib/dnx451/Autofac.dll": {}
        }
      },
      "Autofac.Framework.DependencyInjection/4.0.0-beta5-90": {
        "dependencies": {
          "Autofac": "4.0.0-beta5-90",
          "Microsoft.Framework.DependencyInjection.Abstractions": "1.0.0-beta5"
        },
        "frameworkAssemblies": [
          "mscorlib",
          "System",
          "System.Core",
          "Microsoft.CSharp"
        ],
        "compile": {
          "lib/dnx451/Autofac.dll": {},
          "lib/dnx451/Autofac.Framework.DependencyInjection.dll": {}
        },
        "runtime": {
          "lib/dnx451/Autofac.dll": {},
          "lib/dnx451/Autofac.Framework.DependencyInjection.dll": {}
        }
      },
      "DbSoft.Cache.Aspect/1.13": {
        "dependencies": {
          "PostSharp": "4.0.36"
        },
        "compile": {
          "lib/net451/DbSoft.Cache.Aspect.dll": {}
        },
        "runtime": {
          "lib/net451/DbSoft.Cache.Aspect.dll": {}
        }
      },
      "EntityFramework/6.1.1": {
        "frameworkAssemblies": [
          "System.ComponentModel.DataAnnotations"
        ],
        "compile": {
          "lib/net45/EntityFramework.dll": {},
          "lib/net45/EntityFramework.SqlServer.dll": {}
        },
        "runtime": {
          "lib/net45/EntityFramework.dll": {},
          "lib/net45/EntityFramework.SqlServer.dll": {}
        }
      },
      "EntityFramework.Extended/6.1.0.133": {
        "dependencies": {
          "EntityFramework": "6.1.0"
        },
        "frameworkAssemblies": [
          "System.ComponentModel.DataAnnotations"
        ],
        "compile": {
          "lib/net45/EntityFramework.Extended.dll": {}
        },
        "runtime": {
          "lib/net45/EntityFramework.Extended.dll": {}
        }
      },
      "Microsoft.Framework.Configuration/1.0.0-beta5": {
        "dependencies": {
          "Microsoft.Framework.Configuration.Abstractions": "1.0.0-beta5"
        },
        "frameworkAssemblies": [
          "mscorlib",
          "System",
          "System.Core",
          "Microsoft.CSharp"
        ],
        "compile": {
          "lib/dnx451/Microsoft.Framework.Configuration.dll": {}
        },
        "runtime": {
          "lib/dnx451/Microsoft.Framework.Configuration.dll": {}
        }
      },
      "Microsoft.Framework.Configuration.Abstractions/1.0.0-beta5": {
        "frameworkAssemblies": [
          "mscorlib",
          "System",
          "System.Core",
          "Microsoft.CSharp"
        ],
        "compile": {
          "lib/dnx451/Microsoft.Framework.Configuration.Abstractions.dll": {}
        },
        "runtime": {
          "lib/dnx451/Microsoft.Framework.Configuration.Abstractions.dll": {}
        }
      },
      "Microsoft.Framework.Configuration.Json/1.0.0-beta5": {
        "dependencies": {
          "Newtonsoft.Json": "6.0.6",
          "Microsoft.Framework.Configuration": "1.0.0-beta5"
        },
        "frameworkAssemblies": [
          "mscorlib",
          "System",
          "System.Core",
          "Microsoft.CSharp"
        ],
        "compile": {
          "lib/dnx451/Microsoft.Framework.Configuration.Json.dll": {}
        },
        "runtime": {
          "lib/dnx451/Microsoft.Framework.Configuration.Json.dll": {}
        }
      },
      "Microsoft.Framework.DependencyInjection.Abstractions/1.0.0-beta5": {
        "frameworkAssemblies": [
          "mscorlib",
          "System",
          "System.Core",
          "Microsoft.CSharp"
        ],
        "compile": {
          "lib/dnx451/Microsoft.Framework.DependencyInjection.Abstractions.dll": {}
        },
        "runtime": {
          "lib/dnx451/Microsoft.Framework.DependencyInjection.Abstractions.dll": {}
        }
      },
      "Newtonsoft.Json/6.0.6": {
        "compile": {
          "lib/net45/Newtonsoft.Json.dll": {}
        },
        "runtime": {
          "lib/net45/Newtonsoft.Json.dll": {}
        }
      },
      "NLog/4.0.1": {
        "compile": {
          "lib/net45/NLog.dll": {}
        },
        "runtime": {
          "lib/net45/NLog.dll": {}
        }
      },
      "NSubstitute/1.8.0.0": {
        "compile": {
          "lib/net45/NSubstitute.dll": {}
        },
        "runtime": {
          "lib/net45/NSubstitute.dll": {}
        }
      },
      "PostSharp/4.1.23": {
        "compile": {
          "lib/net35-client/PostSharp.dll": {}
        },
        "runtime": {
          "lib/net35-client/PostSharp.dll": {}
        }
      },
      "YamlDotNet/3.2.1": {
        "compile": {
          "lib/net35/YamlDotNet.dll": {}
        },
        "runtime": {
          "lib/net35/YamlDotNet.dll": {}
        }
      }
    }
  },
  "libraries": {
    "Autofac/4.0.0-beta5-90": {
      "sha512": "W03LtKJXDUBdRdXOK0Al7cW8Pc0cxEO9TpTHmOejw0EKpcusuHb3d5+sIQAjMMMFaMkKvZTXMeLgpYbAC60r7Q==",
      "files": [
        "Autofac.4.0.0-beta5-90.nupkg",
        "Autofac.4.0.0-beta5-90.nupkg.sha512",
        "Autofac.nuspec",
        "lib/dnx451/Autofac.dll",
        "lib/dnx451/Autofac.xml",
        "lib/dnxcore50/Autofac.dll",
        "lib/dnxcore50/Autofac.xml",
        "lib/portable-net45+win+wpa81+wp80+MonoAndroid10+Xamarin.iOS10+MonoTouch10/Autofac.dll",
        "lib/portable-net45+win+wpa81+wp80+MonoAndroid10+Xamarin.iOS10+MonoTouch10/Autofac.xml"
      ]
    },
    "Autofac.Framework.DependencyInjection/4.0.0-beta5-90": {
      "sha512": "15521f7ipqCcx9KPdHcma1wir5mkyzGmSgY8/5srD9MUfwdA+tYjZQIgmaP2wGXER1hffVAGvpZd5n4qlYqYGg==",
      "files": [
        "Autofac.Framework.DependencyInjection.4.0.0-beta5-90.nupkg",
        "Autofac.Framework.DependencyInjection.4.0.0-beta5-90.nupkg.sha512",
        "Autofac.Framework.DependencyInjection.nuspec",
        "lib/dnx451/Autofac.dll",
        "lib/dnx451/Autofac.Framework.DependencyInjection.dll",
        "lib/dnx451/Autofac.Framework.DependencyInjection.xml",
        "lib/dnx451/Autofac.xml",
        "lib/dnxcore50/Autofac.dll",
        "lib/dnxcore50/Autofac.Framework.DependencyInjection.dll",
        "lib/dnxcore50/Autofac.Framework.DependencyInjection.xml",
        "lib/dnxcore50/Autofac.xml"
      ]
    },
    "DbSoft.Cache.Aspect/1.13": {
      "sha512": "gfkS6CkzVrpOg6j9hHrOziq6fHGOmgYE+PieW4YEKTIiJ+mlZ8N5OZ6T6dJs0tloLHJthNrcRV0BEYfwalTvLw==",
      "files": [
        "DbSoft.Cache.Aspect.1.13.nupkg",
        "DbSoft.Cache.Aspect.1.13.nupkg.sha512",
        "DbSoft.Cache.Aspect.nuspec",
        "lib/net451/DbSoft.Cache.Aspect.dll"
      ]
    },
    "EntityFramework/6.1.1": {
      "serviceable": true,
      "sha512": "FdXtqmcaIMLnjS46aQjpQGKaV0PuPhAIYAVHN6vB7UMjMr4iLZsMIz4Nk7m31iUvh+hNPF9t7tZkW0CczGNr6A==",
      "files": [
        "EntityFramework.6.1.1.nupkg",
        "EntityFramework.6.1.1.nupkg.sha512",
        "EntityFramework.nuspec",
        "content/App.config.transform",
        "content/Web.config.transform",
        "lib/net40/EntityFramework.dll",
        "lib/net40/EntityFramework.SqlServer.dll",
        "lib/net40/EntityFramework.SqlServer.xml",
        "lib/net40/EntityFramework.xml",
        "lib/net45/EntityFramework.dll",
        "lib/net45/EntityFramework.SqlServer.dll",
        "lib/net45/EntityFramework.SqlServer.xml",
        "lib/net45/EntityFramework.xml",
        "tools/about_EntityFramework.help.txt",
        "tools/EntityFramework.PowerShell.dll",
        "tools/EntityFramework.PowerShell.Utility.dll",
        "tools/EntityFramework.psd1",
        "tools/EntityFramework.psm1",
        "tools/init.ps1",
        "tools/install.ps1",
        "tools/migrate.exe"
      ]
    },
    "EntityFramework.Extended/6.1.0.133": {
      "sha512": "8AVT/mcozgwwlMWcz5l7V18lqsaegCB3nfokmeLxdKsNHYeSuLK+RiJmpmFKEimsrPud6+WFebLfv9GHGA1q+Q==",
      "files": [
        "EntityFramework.Extended.6.1.0.133.nupkg",
        "EntityFramework.Extended.6.1.0.133.nupkg.sha512",
        "EntityFramework.Extended.nuspec",
        "lib/net40/EntityFramework.Extended.dll",
        "lib/net40/EntityFramework.Extended.dll.config",
        "lib/net40/EntityFramework.Extended.xml",
        "lib/net45/EntityFramework.Extended.dll",
        "lib/net45/EntityFramework.Extended.dll.config",
        "lib/net45/EntityFramework.Extended.xml"
      ]
    },
    "Microsoft.Framework.Configuration/1.0.0-beta5": {
      "serviceable": true,
      "sha512": "UBw3f+fKi4/WHWIz3oTKF5UiLjmfvTiDgU9oCjYYApqKUMIji4VPbgsoqCzEzgXPHpLHDGkBal6Ux0Gcgu15Ig==",
      "files": [
        "Microsoft.Framework.Configuration.1.0.0-beta5.nupkg",
        "Microsoft.Framework.Configuration.1.0.0-beta5.nupkg.sha512",
        "Microsoft.Framework.Configuration.nuspec",
        "lib/dnx451/Microsoft.Framework.Configuration.dll",
        "lib/dnx451/Microsoft.Framework.Configuration.xml",
        "lib/dotnet/Microsoft.Framework.Configuration.dll",
        "lib/dotnet/Microsoft.Framework.Configuration.xml",
        "lib/net45/Microsoft.Framework.Configuration.dll",
        "lib/net45/Microsoft.Framework.Configuration.xml"
      ]
    },
    "Microsoft.Framework.Configuration.Abstractions/1.0.0-beta5": {
      "serviceable": true,
      "sha512": "dW5gHHlvvNnrFFSGtfOFhKClSi9Eb4WFPVdrrIbZYq2gIVw2Dde740p68H3+v9Fr511sk4yPCkGZ0wqXm1GObw==",
      "files": [
        "Microsoft.Framework.Configuration.Abstractions.1.0.0-beta5.nupkg",
        "Microsoft.Framework.Configuration.Abstractions.1.0.0-beta5.nupkg.sha512",
        "Microsoft.Framework.Configuration.Abstractions.nuspec",
        "lib/dnx451/Microsoft.Framework.Configuration.Abstractions.dll",
        "lib/dnx451/Microsoft.Framework.Configuration.Abstractions.xml",
        "lib/dotnet/Microsoft.Framework.Configuration.Abstractions.dll",
        "lib/dotnet/Microsoft.Framework.Configuration.Abstractions.xml",
        "lib/net45/Microsoft.Framework.Configuration.Abstractions.dll",
        "lib/net45/Microsoft.Framework.Configuration.Abstractions.xml"
      ]
    },
    "Microsoft.Framework.Configuration.Json/1.0.0-beta5": {
      "serviceable": true,
      "sha512": "oEfKwn889qloLLaz89X3Gvh4tcPeHHrqyQlAtmYHrzfE3EakkV3g8pBMIL8s26G8pIOfSaLyK3MMMqD7nxYMPA==",
      "files": [
        "Microsoft.Framework.Configuration.Json.1.0.0-beta5.nupkg",
        "Microsoft.Framework.Configuration.Json.1.0.0-beta5.nupkg.sha512",
        "Microsoft.Framework.Configuration.Json.nuspec",
        "lib/dnx451/Microsoft.Framework.Configuration.Json.dll",
        "lib/dnx451/Microsoft.Framework.Configuration.Json.xml",
        "lib/dotnet/Microsoft.Framework.Configuration.Json.dll",
        "lib/dotnet/Microsoft.Framework.Configuration.Json.xml",
        "lib/net45/Microsoft.Framework.Configuration.Json.dll",
        "lib/net45/Microsoft.Framework.Configuration.Json.xml"
      ]
    },
    "Microsoft.Framework.DependencyInjection.Abstractions/1.0.0-beta5": {
      "serviceable": true,
      "sha512": "/WgY/P0YftvScIfLyLee36H7fb6EUG2L6p5qZMp7quJ3aUEHUolZpXBbYQ9XP21KuX4ab0/zH8DD0mpMKjGDsw==",
      "files": [
        "Microsoft.Framework.DependencyInjection.Abstractions.1.0.0-beta5.nupkg",
        "Microsoft.Framework.DependencyInjection.Abstractions.1.0.0-beta5.nupkg.sha512",
        "Microsoft.Framework.DependencyInjection.Abstractions.nuspec",
        "lib/dnx451/Microsoft.Framework.DependencyInjection.Abstractions.dll",
        "lib/dnx451/Microsoft.Framework.DependencyInjection.Abstractions.xml",
        "lib/dotnet/Microsoft.Framework.DependencyInjection.Abstractions.dll",
        "lib/dotnet/Microsoft.Framework.DependencyInjection.Abstractions.xml",
        "lib/net45/Microsoft.Framework.DependencyInjection.Abstractions.dll",
        "lib/net45/Microsoft.Framework.DependencyInjection.Abstractions.xml"
      ]
    },
    "Newtonsoft.Json/6.0.6": {
      "sha512": "w26uZNyCG5VeoKiEOJ4+9/o8koSofLKwHl7WLreIcp0U6r57L7WiRXmjp8MTKFw6dYNZ9AE0lw69WYbIhUsU9Q==",
      "files": [
        "Newtonsoft.Json.6.0.6.nupkg",
        "Newtonsoft.Json.6.0.6.nupkg.sha512",
        "Newtonsoft.Json.nuspec",
        "lib/net20/Newtonsoft.Json.dll",
        "lib/net20/Newtonsoft.Json.xml",
        "lib/net35/Newtonsoft.Json.dll",
        "lib/net35/Newtonsoft.Json.xml",
        "lib/net40/Newtonsoft.Json.dll",
        "lib/net40/Newtonsoft.Json.xml",
        "lib/net45/Newtonsoft.Json.dll",
        "lib/net45/Newtonsoft.Json.xml",
        "lib/netcore45/Newtonsoft.Json.dll",
        "lib/netcore45/Newtonsoft.Json.xml",
        "lib/portable-net40+sl5+wp80+win8+wpa81/Newtonsoft.Json.dll",
        "lib/portable-net40+sl5+wp80+win8+wpa81/Newtonsoft.Json.xml",
        "lib/portable-net45+wp80+win8+wpa81+aspnetcore50/Newtonsoft.Json.dll",
        "lib/portable-net45+wp80+win8+wpa81+aspnetcore50/Newtonsoft.Json.xml",
        "tools/install.ps1"
      ]
    },
    "NLog/4.0.1": {
      "sha512": "ux2tUa7jkDtroJMSsrXMsHiqNVDHgbcGfFWFHg3XZg+nQNIRGZY2/emJYfjukmR+cHoTGIl8B0mYLl+zWScleg==",
      "files": [
        "NLog.4.0.1.nupkg",
        "NLog.4.0.1.nupkg.sha512",
        "NLog.nuspec",
        "lib/net35/NLog.dll",
        "lib/net35/NLog.xml",
        "lib/net40/NLog.dll",
        "lib/net40/NLog.xml",
        "lib/net45/NLog.dll",
        "lib/net45/NLog.xml",
        "lib/sl4/NLog.dll",
        "lib/sl4/NLog.xml",
        "lib/sl5/NLog.dll",
        "lib/sl5/NLog.xml"
      ]
    },
    "NSubstitute/1.8.0.0": {
      "sha512": "vxIXewoT+xjYp5N+kLMwZCqROoKqLSZm/8Ewlqq5sHWYVs16agp7mJQgS5F5tBm3bSccDwvjyT+WgSJ79A829w==",
      "files": [
        "acknowledgements.txt",
        "BreakingChanges.txt",
        "CHANGELOG.txt",
        "LICENSE.txt",
        "NSubstitute.1.8.0.0.nupkg",
        "NSubstitute.1.8.0.0.nupkg.sha512",
        "NSubstitute.nuspec",
        "README.txt",
        "lib/net35/NSubstitute.dll",
        "lib/net35/NSubstitute.XML",
        "lib/net40/NSubstitute.dll",
        "lib/net40/NSubstitute.XML",
        "lib/net45/NSubstitute.dll",
        "lib/net45/NSubstitute.XML"
      ]
    },
    "PostSharp/4.1.23": {
      "sha512": "2w/TQBIUNRwVRoH/FMiF2vY+kCI/5bBtvdWKkYe3r6fiadrI3nL4j8fi0Hfhzu2ImWmh8qmDZDpTiqFAmscmQw==",
      "files": [
        "PostSharp.4.1.23.nupkg",
        "PostSharp.4.1.23.nupkg.sha512",
        "PostSharp.nuspec",
        "lib/net35-client/PostSharp.dll",
        "lib/net35-client/PostSharp.xml",
        "lib/portable-net4+sl5+netcore45+wpa81+wp8/PostSharp.dll",
        "lib/portable-net4+sl5+netcore45+wpa81+wp8/PostSharp.xml",
        "tools/install.ps1",
        "tools/PostSharp-Tools.exe",
        "tools/PostSharp.MSBuild.v4.1.23.Release.dll",
        "tools/PostSharp.properties",
        "tools/PostSharp.targets",
        "tools/PostSharp.tasks",
        "tools/uninstall.ps1"
      ]
    },
    "YamlDotNet/3.2.1": {
      "sha512": "wupM4gryYj0/+6HKP4J9eUY9pi6ni1lZPiisIIAvFAhZriAgm4ueb/Fnmpj3sHi6rxecbzK9aOuqN6aqA8EZxg==",
      "files": [
        "YamlDotNet.3.2.1.nupkg",
        "YamlDotNet.3.2.1.nupkg.sha512",
        "YamlDotNet.nuspec",
        "lib/net35/YamlDotNet.dll",
        "lib/net35/YamlDotNet.pdb"
      ]
    }
  },
  "projectFileDependencyGroups": {
    "": [
      "Autofac.Framework.DependencyInjection >= 4.0.0-beta5-90",
      "NLog >= 4.0.1",
      "Microsoft.Framework.Configuration >= 1.0.0-beta5"
    ],
    "DNX,Version=v4.5.1": [
      "EPM.DAL >= 1.0.0-*"
    ]
  }
}